Differential abundance and differential expression analysis in cardiomyocytes
…
Transcription factor inference analysis

net <- get_collectri(organism='human', split_complexes=FALSE)
net

# A tibble: 43,178 × 3
   source target   mor
   <chr>  <chr>  <dbl>
 1 MYC    TERT       1
 2 SPI1   BGLAP      1
 3 SMAD3  JUN        1
 4 SMAD4  JUN        1
 5 STAT5A IL2        1
 6 STAT5B IL2        1
 7 RELA   FAS        1
 8 WT1    NR0B1      1
 9 NR0B2  CASP1      1
10 SP1    ALDOA      1
# ℹ 43,168 more rows
…
